…
# 3\)

El dataset cuanta únicamente con 100 filas completas, es decir que no
contengan ningun dato faltante. A continuación se presentan las 100
filas completas con data original.

``` r
datam1 <- na.omit(datam)
datam2 <- datam1[datam1$Sex!="?",]
datam2
```

    ## # A tibble: 100 x 12
    ##    PassengerId Survived Pclass Name  Sex     Age SibSp Parch Ticket  Fare Cabin
    ##          <dbl>    <dbl>  <dbl> <chr> <chr> <dbl> <dbl> <dbl> <chr>  <dbl> <chr>
    ##  1           4        1      1 Futr~ fema~    35     1     0 113803  53.1 C123 
    ##  2           7        0      1 McCa~ male     54     0     0 17463   51.9 E46  
    ##  3          22        1      2 Bees~ male     34     0     0 248698  13   D56  
    ##  4          55        0      1 Ostb~ male     65     0     1 113509  62.0 B30  
    ##  5          63        0      1 Harr~ male     45     1     0 36973   83.5 C83  
    ##  6          67        1      2 Nye,~ fema~    29     0     0 C.A. ~  10.5 F33  
    ##  7          97        0      1 Gold~ male     71     0     0 PC 17~  34.7 A5   
    ##  8          98        1      1 Gree~ male     23     0     1 PC 17~  63.4 D10 ~
    ##  9         103        0      1 Whit~ male     21     0     1 35281   77.3 D26  
    ## 10         119        0      1 Baxt~ male     24     0     1 PC 17~ 248.  B58 ~
    ## # ... with 90 more rows, and 1 more variable: Embarked <chr>
…
